<?xml version="1.0" encoding="UTF-8" standalone="no"?>
<svg
   xmlns:dc="http://purl.org/dc/elements/1.1/"
   xmlns:cc="http://creativecommons.org/ns#"
   xmlns:rdf="http://www.w3.org/1999/02/22-rdf-syntax-ns#"
   xmlns:svg="http://www.w3.org/2000/svg"
   xmlns="http://www.w3.org/2000/svg"
   viewBox="0 0 2000 1046.6667"
   height="1046.6667"
   width="2000"
   xml:space="preserve"
   id="svg2"
   version="1.1"><metadata
     id="metadata8"><rdf:RDF><cc:Work
         rdf:about=""><dc:format>image/svg+xml</dc:format><dc:type
           rdf:resource="http://purl.org/dc/dcmitype/StillImage" /></cc:Work></rdf:RDF></metadata><defs
     id="defs6" /><g
     transform="matrix(1.3333333,0,0,-1.3333333,0,1046.6667)"
     id="g10"><g
       transform="scale(0.1)"
       id="g12"><path
         id="path14"
         style="fill:#a0dfdd;fill-opacity:1;fill-rule:nonzero;stroke:none"
         d="M 15215.6,-357.941 H -199.883 V 7850 H 15215.6 V -357.941" /><path
         id="path16"
         style="fill:#e4f4f9;fill-opacity:1;fill-rule:nonzero;stroke:none"
         d="m 2110.67,6212.15 c 6.18,22.4 9.54,45.97 9.54,70.33 0,145.87 -118.25,264.12 -264.12,264.12 -28.64,0 -56.2,-4.63 -82.03,-13.06 -53.99,161.07 -206.01,277.17 -385.25,277.17 -174.84,0 -323.85,-110.43 -381.17,-265.34 -8.285,0.79 -16.671,1.23 -25.163,1.23 -111.301,0 -206.446,-68.88 -245.329,-166.3 -17.347,5.38 -35.793,8.28 -54.906,8.28 -99.32,0 -180.351,-78.23 -184.887,-176.43 H 2110.67" /><path
         id="path18"
         style="fill:#e4f4f9;fill-opacity:1;fill-rule:nonzero;stroke:none"
         d="m 7728.05,6717.23 c 6.17,22.39 9.54,45.96 9.54,70.32 0,145.87 -118.25,264.12 -264.11,264.12 -28.66,0 -56.21,-4.62 -82.04,-13.06 -53.98,161.07 -206.01,277.18 -385.25,277.18 -174.83,0 -323.85,-110.44 -381.17,-265.34 -8.29,0.78 -16.67,1.22 -25.16,1.22 -111.3,0 -206.45,-68.88 -245.33,-166.3 -17.35,5.38 -35.79,8.28 -54.91,8.28 -99.32,0 -180.35,-78.23 -184.89,-176.42 h 1613.32" /><path
         id="path20"
         style="fill:#e4f4f9;fill-opacity:1;fill-rule:nonzero;stroke:none"
         d="m 13604.4,6219.86 c 6.2,22.41 9.6,45.97 9.6,70.34 0,145.86 -118.3,264.11 -264.1,264.11 -28.7,0 -56.2,-4.62 -82.1,-13.06 -54,161.07 -206,277.18 -385.2,277.18 -174.9,0 -323.9,-110.44 -381.2,-265.34 -8.3,0.78 -16.7,1.22 -25.2,1.22 -111.3,0 -206.4,-68.88 -245.3,-166.3 -17.3,5.38 -35.8,8.28 -54.9,8.28 -99.3,0 -180.3,-78.23 -184.9,-176.43 h 1613.3" /><path
         id="path22"
         style="fill:#6dced1;fill-opacity:1;fill-rule:nonzero;stroke:none"
         d="M -1754.27,2637.61 712.008,5689.25 c 41.715,51.61 118.797,83.41 202.226,83.41 83.426,0 160.516,-31.8 202.226,-83.41 L 3582.73,2637.61 h -5337" /><path
         id="path24"
         style="fill:#6dced1;fill-opacity:1;fill-rule:nonzero;stroke:none"
         d="m 2512.49,2637.61 1725.02,2134.46 c 29.18,36.09 83.1,58.34 141.45,58.34 58.35,0 112.27,-22.25 141.45,-58.34 L 6245.43,2637.61 H 2512.49" /><path
         id="path26"
         style="fill:#6dced1;fill-opacity:1;fill-rule:nonzero;stroke:none"
         d="m 5287.46,2659.52 2466.27,3051.64 c 41.71,51.61 118.8,83.41 202.23,83.41 83.42,0 160.51,-31.8 202.22,-83.41 L 10624.5,2659.52 H 5287.46" /><path
         id="path28"
         style="fill:#6dced1;fill-opacity:1;fill-rule:nonzero;stroke:none"
         d="m 5269.17,2648.57 2466.27,3051.64 c 41.71,51.61 118.8,83.4 202.23,83.4 83.42,0 160.51,-31.79 202.23,-83.4 L 10606.2,2648.57 H 5269.17" /><path
         id="path30"
         style="fill:#6dced1;fill-opacity:1;fill-rule:nonzero;stroke:none"
         d="m 9535.93,2648.57 1724.97,2134.45 c 29.2,36.1 83.1,58.34 141.5,58.34 58.4,0 112.3,-22.24 141.4,-58.34 L 13268.9,2648.57 H 9535.93" /><path
         id="path32"
         style="fill:#6dced1;fill-opacity:1;fill-rule:nonzero;stroke:none"
         d="m 12310.9,2670.48 2466.3,3051.63 c 41.7,51.62 118.8,83.41 202.2,83.41 83.4,0 160.5,-31.79 202.2,-83.41 l 2466.3,-3051.63 h -5337" /><path
         id="path34"
         style="fill:#8bc470;fill-opacity:1;fill-rule:nonzero;stroke:none"
         d="M 15268.7,-317.301 H -241.996 V 2714.29 H 15268.7 V -317.301" /><path
         id="path36"
         style="fill:#95d174;fill-opacity:1;fill-rule:nonzero;stroke:none"
         d="M 15268.7,-317.301 H -241.996 V 542.09 H 15268.7 v -859.391" /><path
         id="path38"
         style="fill:#95d174;fill-opacity:1;fill-rule:nonzero;stroke:none"
         d="M 15179,1264.01 H -331.664 v 661.75 H 15179 v -661.75" /><path
         id="path40"
         style="fill:#bb5f4f;fill-opacity:1;fill-rule:nonzero;stroke:none"
         d="m 4192.3,1466.45 h -6780.64 v 130.53 c 0,395.17 320.35,715.52 715.52,715.52 h 5349.61 c 395.17,0 715.51,-320.35 715.51,-715.52 v -130.53" /><path
         id="path42"
         style="fill:#5dc46a;fill-opacity:1;fill-rule:nonzero;stroke:none"
         d="m 2089.7,3466.21 c -23.03,21.09 -55.08,29.28 -85.38,21.76 -63.05,-15.64 -158.31,-80.83 -178.34,-327.87 -25.86,-318.93 -22.5,-404.02 -212.89,-509.25 -190.42,105.23 -187.06,190.32 -212.92,509.25 -20.03,247.04 -115.29,312.23 -178.34,327.87 -30.25,7.51 -62.39,-0.7 -85.38,-21.76 -143.938,-131.84 -234.204,-321.34 -234.204,-531.95 0,-312.79 199.124,-579.12 477.554,-679.05 73.03,-26.2 151.52,-40.98 233.29,-42.09 81.77,1.11 160.23,15.89 233.26,42.09 278.43,99.93 477.56,366.26 477.56,679.05 0,210.61 -90.27,400.11 -234.21,531.95" /><path
         id="path44"
         style="fill:#46b562;fill-opacity:1;fill-rule:nonzero;stroke:none"
         d="m 2066.1,2909.56 c -146.32,149.11 -306.08,345.66 -216.03,481.22 79.8,120.13 -70.02,241.58 -196.07,259.45 -6.27,0.4 -12.56,0.71 -18.87,0.97 -1.02,0.27 -2.04,0.49 -3.09,0.59 -4.16,0 -8.3,-0.05 -12.45,-0.12 -4.13,0.07 -8.28,0.12 -12.44,0.12 -1.05,-0.1 -2.07,-0.32 -3.09,-0.59 -6.31,-0.26 -12.6,-0.57 -18.87,-0.97 -126.05,-17.87 -275.87,-139.32 -196.06,-259.45 90.04,-135.56 -69.72,-332.11 -216.04,-481.22 -70.14,-71.47 -31.48,-187.44 1.27,-265.16 58,-137.66 142.29,-262.4 264.32,-350.87 39.58,-28.7 82.22,-53.02 122.49,-80.74 13.91,-1.35 27.94,-2.27 42.07,-2.83 0.02,-0.19 0.03,-0.4 0.05,-0.59 1.29,0 2.57,-0.04 3.86,-0.04 4.16,0 8.3,0.08 12.44,0.15 4.15,-0.07 8.29,-0.15 12.45,-0.15 1.29,0 2.57,0.04 3.86,0.04 0.02,0.19 0.03,0.4 0.05,0.59 14.13,0.56 28.16,1.48 42.07,2.83 32.46,22.35 64.93,44.71 97.42,67.02 73.7,50.61 137.18,95.78 188.5,170.68 39.12,57.09 70.06,119.29 97.01,182.91 24.73,58.38 50.78,121.23 43.52,185.99 -3.3,29.53 -17.01,68.41 -38.37,90.17" /><path
         id="path46"
         style="fill:#5dc46a;fill-opacity:1;fill-rule:nonzero;stroke:none"
         d="m 3703.57,3480.64 c -23.02,21.08 -55.08,29.27 -85.38,21.76 -63.04,-15.65 -158.31,-80.83 -178.34,-327.88 -25.85,-318.92 -22.5,-404.02 -212.89,-509.24 -190.42,105.22 -187.06,190.32 -212.92,509.24 -20.03,247.05 -115.29,312.23 -178.34,327.88 -30.25,7.5 -62.39,-0.71 -85.37,-21.77 -143.95,-131.84 -234.21,-321.33 -234.21,-531.94 0,-312.79 199.13,-579.12 477.56,-679.06 73.02,-26.2 151.51,-40.97 233.28,-42.09 81.78,1.12 160.23,15.89 233.26,42.09 278.43,99.94 477.56,366.27 477.56,679.06 0,210.61 -90.27,400.1 -234.21,531.95" /><path
         id="path48"
         style="fill:#46b562;fill-opacity:1;fill-rule:nonzero;stroke:none"
         d="m 3679.98,2923.98 c -146.33,149.11 -306.09,345.67 -216.04,481.22 79.8,120.13 -70.01,241.59 -196.06,259.46 -6.27,0.4 -12.57,0.71 -18.88,0.96 -1.02,0.28 -2.04,0.5 -3.09,0.59 -4.16,0 -8.3,-0.04 -12.44,-0.12 -4.14,0.08 -8.29,0.12 -12.44,0.12 -1.05,-0.09 -2.07,-0.31 -3.09,-0.59 -6.31,-0.25 -12.61,-0.56 -18.88,-0.96 -126.05,-17.87 -275.87,-139.33 -196.06,-259.46 90.05,-135.55 -69.72,-332.11 -216.04,-481.22 -70.13,-71.47 -31.48,-187.44 1.27,-265.15 58.01,-137.66 142.29,-262.4 264.32,-350.88 39.58,-28.69 82.23,-53.01 122.49,-80.73 13.92,-1.36 27.95,-2.28 42.07,-2.84 0.02,-0.19 0.03,-0.39 0.05,-0.58 1.29,-0.01 2.57,-0.05 3.87,-0.05 4.16,0 8.3,0.08 12.44,0.16 4.14,-0.08 8.28,-0.16 12.44,-0.16 1.3,0 2.58,0.04 3.87,0.05 0.01,0.19 0.03,0.39 0.04,0.58 14.13,0.56 28.16,1.48 42.07,2.84 32.47,22.35 64.93,44.71 97.43,67.02 73.69,50.6 137.17,95.77 188.49,170.67 39.12,57.1 70.07,119.29 97.02,182.92 24.73,58.37 50.77,121.23 43.52,185.99 -3.31,29.52 -17.02,68.41 -38.37,90.16" /><path
         id="path50"
         style="fill:#5dc46a;fill-opacity:1;fill-rule:nonzero;stroke:none"
         d="m 475.824,3480.64 c -23.019,21.08 -55.078,29.27 -85.375,21.76 C 327.398,3486.75 232.133,3421.57 212.105,3174.52 186.25,2855.6 189.605,2770.5 -0.78125,2665.28 -191.199,2770.5 -187.848,2855.6 -213.699,3174.52 c -20.031,247.05 -115.293,312.23 -178.348,327.88 -30.25,7.5 -62.387,-0.71 -85.375,-21.77 -143.945,-131.84 -234.211,-321.33 -234.211,-531.94 0,-312.79 199.133,-579.12 477.563,-679.06 73.031,-26.2 151.5153,-40.97 233.28875,-42.09 81.77345,1.12 160.22225,15.89 233.25825,42.09 278.425,99.94 477.558,366.27 477.558,679.06 0,210.61 -90.265,400.1 -234.211,531.95" /><path
         id="path52"
         style="fill:#46b562;fill-opacity:1;fill-rule:nonzero;stroke:none"
         d="m 452.23,2923.98 c -146.324,149.11 -306.082,345.67 -216.039,481.22 79.805,120.13 -70.007,241.59 -196.0621,259.46 -6.2734,0.4 -12.5664,0.71 -18.875,0.96 -1.0156,0.28 -2.0391,0.5 -3.0898,0.59 -4.1563,0 -8.30082,-0.04 -12.44144,-0.12 -4.14063,0.08 -8.28516,0.12 -12.44532,0.12 -1.04687,-0.09 -2.07031,-0.31 -3.08593,-0.59 -6.30861,-0.25 -12.60161,-0.56 -18.87111,-0.96 -126.0543,-17.87 -275.8713,-139.33 -196.0703,-259.46 90.047,-135.55 -69.715,-332.11 -216.039,-481.22 -70.129,-71.47 -31.477,-187.44 1.273,-265.15 58,-137.66 142.289,-262.4 264.321,-350.88 39.582,-28.69 82.2262,-53.01 122.4958,-80.73 13.9062,-1.36 27.9375,-2.28 42.0625,-2.84 0.0234,-0.19 0.0351,-0.39 0.0508,-0.58 1.28902,-0.01 2.57418,-0.05 3.86324,-0.05 4.16407,0 8.30079,0.08 12.44532,0.16 4.14453,-0.08 8.28514,-0.16 12.44144,-0.16 1.2929,0 2.5742,0.04 3.8672,0.05 0.0156,0.19 0.0273,0.39 0.0507,0.58 14.125,0.56 28.1563,1.48 42.0625,2.84 32.4649,22.35 64.9335,44.71 97.4255,67.02 73.696,50.6 137.176,95.77 188.493,170.67 39.121,57.1 70.07,119.29 97.015,182.92 24.735,58.37 50.777,121.23 43.524,185.99 -3.305,29.52 -17.016,68.41 -38.372,90.16" /><path
         id="path54"
         style="fill:#bb5f4f;fill-opacity:1;fill-rule:nonzero;stroke:none"
         d="m 4677.89,1466.45 h 6780.61 v 130.53 c 0,395.17 -320.3,715.52 -715.5,715.52 H 5393.41 c -395.17,0 -715.52,-320.35 -715.52,-715.52 v -130.53" /><path
         id="path56"
         style="fill:#5dc46a;fill-opacity:1;fill-rule:nonzero;stroke:none"
         d="m 6780.49,3466.21 c 23.03,21.09 55.08,29.28 85.38,21.76 63.05,-15.64 158.31,-80.83 178.34,-327.87 25.86,-318.93 22.5,-404.02 212.89,-509.25 190.42,105.23 187.07,190.32 212.92,509.25 20.03,247.04 115.29,312.23 178.34,327.87 30.25,7.51 62.39,-0.7 85.38,-21.76 143.94,-131.84 234.21,-321.34 234.21,-531.95 0,-312.79 -199.13,-579.12 -477.56,-679.05 -73.03,-26.2 -151.52,-40.98 -233.29,-42.09 -81.77,1.11 -160.22,15.89 -233.26,42.09 -278.42,99.93 -477.56,366.26 -477.56,679.05 0,210.61 90.27,400.11 234.21,531.95" /><path
         id="path58"
         style="fill:#46b562;fill-opacity:1;fill-rule:nonzero;stroke:none"
         d="m 6804.09,2909.56 c 146.32,149.11 306.08,345.66 216.03,481.22 -79.8,120.13 70.02,241.58 196.07,259.45 6.27,0.4 12.56,0.71 18.87,0.97 1.02,0.27 2.04,0.49 3.09,0.59 4.16,0 8.31,-0.05 12.45,-0.12 4.14,0.07 8.28,0.12 12.44,0.12 1.05,-0.1 2.07,-0.32 3.09,-0.59 6.31,-0.26 12.6,-0.57 18.87,-0.97 126.05,-17.87 275.87,-139.32 196.07,-259.45 -90.05,-135.56 69.71,-332.11 216.04,-481.22 70.13,-71.47 31.47,-187.44 -1.28,-265.16 -58,-137.66 -142.29,-262.4 -264.32,-350.87 -39.58,-28.7 -82.22,-53.02 -122.49,-80.74 -13.91,-1.35 -27.94,-2.27 -42.07,-2.83 -0.02,-0.19 -0.03,-0.4 -0.05,-0.59 -1.29,0 -2.57,-0.04 -3.86,-0.04 -4.16,0 -8.3,0.08 -12.44,0.15 -4.15,-0.07 -8.29,-0.15 -12.45,-0.15 -1.29,0 -2.57,0.04 -3.86,0.04 -0.02,0.19 -0.03,0.4 -0.05,0.59 -14.13,0.56 -28.16,1.48 -42.07,2.83 -32.46,22.35 -64.93,44.71 -97.42,67.02 -73.7,50.61 -137.18,95.78 -188.5,170.68 -39.12,57.09 -70.06,119.29 -97.01,182.91 -24.73,58.38 -50.78,121.23 -43.52,185.99 3.3,29.53 17.01,68.41 38.37,90.17" /><path
         id="path60"
         style="fill:#5dc46a;fill-opacity:1;fill-rule:nonzero;stroke:none"
         d="m 5166.62,3480.64 c 23.02,21.08 55.08,29.27 85.38,21.76 63.04,-15.65 158.31,-80.83 178.34,-327.88 25.86,-318.92 22.5,-404.02 212.89,-509.24 190.42,105.22 187.06,190.32 212.92,509.24 20.03,247.05 115.29,312.23 178.34,327.88 30.25,7.5 62.39,-0.71 85.38,-21.77 143.94,-131.84 234.21,-321.33 234.21,-531.94 0,-312.79 -199.13,-579.12 -477.56,-679.06 -73.03,-26.2 -151.52,-40.97 -233.29,-42.09 -81.77,1.12 -160.23,15.89 -233.26,42.09 -278.43,99.94 -477.56,366.27 -477.56,679.06 0,210.61 90.27,400.1 234.21,531.95" /><path
         id="path62"
         style="fill:#46b562;fill-opacity:1;fill-rule:nonzero;stroke:none"
         d="m 5190.21,2923.98 c 146.33,149.11 306.09,345.67 216.04,481.22 -79.8,120.13 70.01,241.59 196.06,259.46 6.28,0.4 12.57,0.71 18.88,0.96 1.02,0.28 2.04,0.5 3.09,0.59 4.16,0 8.3,-0.04 12.44,-0.12 4.14,0.08 8.29,0.12 12.45,0.12 1.04,-0.09 2.07,-0.31 3.08,-0.59 6.31,-0.25 12.61,-0.56 18.88,-0.96 126.05,-17.87 275.87,-139.33 196.06,-259.46 -90.04,-135.55 69.72,-332.11 216.04,-481.22 70.13,-71.47 31.48,-187.44 -1.27,-265.15 -58,-137.66 -142.29,-262.4 -264.32,-350.88 -39.58,-28.69 -82.22,-53.01 -122.49,-80.73 -13.91,-1.36 -27.94,-2.28 -42.07,-2.84 -0.02,-0.19 -0.03,-0.39 -0.05,-0.58 -1.29,-0.01 -2.57,-0.05 -3.86,-0.05 -4.17,0 -8.31,0.08 -12.45,0.16 -4.14,-0.08 -8.28,-0.16 -12.44,-0.16 -1.3,0 -2.58,0.04 -3.86,0.05 -0.02,0.19 -0.03,0.39 -0.05,0.58 -14.13,0.56 -28.16,1.48 -42.07,2.84 -32.47,22.35 -64.93,44.71 -97.43,67.02 -73.69,50.6 -137.17,95.77 -188.49,170.67 -39.12,57.1 -70.07,119.29 -97.02,182.92 -24.73,58.37 -50.77,121.23 -43.51,185.99 3.3,29.52 17.01,68.41 38.36,90.16" /><path
         id="path64"
         style="fill:#5dc46a;fill-opacity:1;fill-rule:nonzero;stroke:none"
         d="m 10016.6,3480.64 c 23,21.08 55,29.27 85.3,21.76 63.1,-15.65 158.3,-80.83 178.4,-327.88 25.8,-318.92 22.5,-404.02 212.9,-509.24 190.4,105.22 187,190.32 212.9,509.24 20,247.05 115.3,312.23 178.3,327.88 30.3,7.5 62.4,-0.71 85.4,-21.77 143.9,-131.84 234.2,-321.33 234.2,-531.94 0,-312.79 -199.1,-579.12 -477.6,-679.06 -73,-26.2 -151.5,-40.97 -233.2,-42.09 -81.8,1.12 -160.3,15.89 -233.3,42.09 -278.43,99.94 -477.56,366.27 -477.56,679.06 0,210.61 90.27,400.1 234.26,531.95" /><path
         id="path66"
         style="fill:#46b562;fill-opacity:1;fill-rule:nonzero;stroke:none"
         d="m 10040.1,2923.98 c 146.4,149.11 306.1,345.67 216.1,481.22 -79.8,120.13 70,241.59 196,259.46 6.3,0.4 12.6,0.71 18.9,0.96 1,0.28 2.1,0.5 3.1,0.59 4.2,0 8.3,-0.04 12.5,-0.12 4.1,0.08 8.2,0.12 12.4,0.12 1,-0.09 2.1,-0.31 3.1,-0.59 6.3,-0.25 12.6,-0.56 18.9,-0.96 126,-17.87 275.8,-139.33 196,-259.46 -90,-135.55 69.7,-332.11 216.1,-481.22 70.1,-71.47 31.4,-187.44 -1.3,-265.15 -58,-137.66 -142.3,-262.4 -264.3,-350.88 -39.6,-28.69 -82.3,-53.01 -122.5,-80.73 -13.9,-1.36 -28,-2.28 -42.1,-2.84 0,-0.19 0,-0.39 0,-0.58 -1.3,-0.01 -2.6,-0.05 -3.9,-0.05 -4.2,0 -8.3,0.08 -12.4,0.16 -4.2,-0.08 -8.3,-0.16 -12.5,-0.16 -1.3,0 -2.6,0.04 -3.9,0.05 0,0.19 0,0.39 0,0.58 -14.1,0.56 -28.2,1.48 -42.1,2.84 -32.4,22.35 -64.9,44.71 -97.4,67.02 -73.7,50.6 -137.2,95.77 -188.5,170.67 -39.1,57.1 -70.1,119.29 -97,182.92 -24.7,58.37 -50.78,121.23 -43.5,185.99 3.3,29.52 17,68.41 38.3,90.16" /><path
         id="path68"
         style="fill:#bb5f4f;fill-opacity:1;fill-rule:nonzero;stroke:none"
         d="m 11944.1,1452.02 h 6780.7 v 130.53 c 0,395.17 -320.4,715.53 -715.6,715.53 h -5349.6 c -395.1,0 -715.5,-320.36 -715.5,-715.53 v -130.53" /><path
         id="path70"
         style="fill:#5dc46a;fill-opacity:1;fill-rule:nonzero;stroke:none"
         d="m 14046.7,3451.79 c 23,21.09 55.1,29.27 85.4,21.75 63,-15.63 158.3,-80.82 178.3,-327.87 25.9,-318.92 22.5,-404.01 212.9,-509.24 190.4,105.23 187.1,190.32 213,509.24 20,247.05 115.2,312.24 178.3,327.87 30.2,7.51 62.4,-0.7 85.4,-21.75 143.9,-131.84 234.2,-321.34 234.2,-531.95 0,-312.79 -199.2,-579.12 -477.6,-679.06 -73,-26.2 -151.5,-40.97 -233.3,-42.09 -81.7,1.12 -160.2,15.89 -233.2,42.09 -278.5,99.94 -477.6,366.27 -477.6,679.06 0,210.61 90.3,400.11 234.2,531.95" /><path
         id="path72"
         style="fill:#46b562;fill-opacity:1;fill-rule:nonzero;stroke:none"
         d="m 14070.3,2895.13 c 146.3,149.11 306.1,345.67 216,481.22 -79.8,120.13 70.1,241.59 196.1,259.46 6.3,0.4 12.6,0.71 18.9,0.96 1,0.28 2,0.5 3.1,0.59 4.1,0 8.3,-0.04 12.4,-0.12 4.2,0.08 8.3,0.12 12.5,0.12 1,-0.09 2,-0.31 3.1,-0.59 6.3,-0.25 12.6,-0.56 18.8,-0.96 126.1,-17.87 275.9,-139.33 196.1,-259.46 -90.1,-135.55 69.7,-332.11 216,-481.22 70.2,-71.46 31.5,-187.43 -1.2,-265.15 -58,-137.66 -142.3,-262.4 -264.4,-350.88 -39.5,-28.69 -82.2,-53.01 -122.5,-80.73 -13.9,-1.36 -27.9,-2.28 -42,-2.84 0,-0.19 -0.1,-0.39 -0.1,-0.58 -1.3,-0.01 -2.5,-0.05 -3.8,-0.05 -4.2,0 -8.3,0.09 -12.5,0.15 -4.1,-0.06 -8.3,-0.15 -12.4,-0.15 -1.3,0 -2.6,0.04 -3.9,0.05 0,0.19 0,0.39 0,0.58 -14.2,0.56 -28.2,1.48 -42.1,2.84 -32.5,22.35 -64.9,44.71 -97.4,67.02 -73.7,50.61 -137.2,95.78 -188.5,170.67 -39.1,57.1 -70.1,119.3 -97,182.91 -24.8,58.38 -50.8,121.24 -43.6,186 3.3,29.53 17.1,68.4 38.4,90.16" /><path
         id="path74"
         style="fill:#5dc46a;fill-opacity:1;fill-rule:nonzero;stroke:none"
         d="m 12432.8,3466.22 c 23.1,21.08 55.1,29.27 85.4,21.75 63.1,-15.64 158.3,-80.82 178.4,-327.87 25.8,-318.93 22.5,-404.02 212.9,-509.25 190.4,105.23 187,190.32 212.9,509.25 20,247.04 115.3,312.23 178.3,327.87 30.3,7.51 62.4,-0.7 85.4,-21.76 143.9,-131.84 234.2,-321.34 234.2,-531.95 0,-312.79 -199.1,-579.12 -477.6,-679.05 -73,-26.2 -151.5,-40.98 -233.2,-42.09 -81.8,1.11 -160.3,15.89 -233.3,42.09 -278.4,99.93 -477.6,366.26 -477.6,679.05 0,210.61 90.3,400.11 234.2,531.96" /><path
         id="path76"
         style="fill:#46b562;fill-opacity:1;fill-rule:nonzero;stroke:none"
         d="m 12456.4,2909.56 c 146.4,149.11 306.1,345.66 216.1,481.22 -79.8,120.13 70,241.58 196,259.45 6.3,0.4 12.6,0.71 18.9,0.97 1,0.27 2.1,0.49 3.1,0.59 4.2,0 8.3,-0.05 12.4,-0.12 4.2,0.07 8.3,0.12 12.5,0.12 1,-0.1 2.1,-0.32 3.1,-0.59 6.3,-0.26 12.6,-0.57 18.9,-0.97 126,-17.87 275.8,-139.32 196,-259.45 -90,-135.56 69.7,-332.11 216.1,-481.22 70.1,-71.47 31.4,-187.44 -1.3,-265.16 -58,-137.66 -142.3,-262.4 -264.3,-350.87 -39.6,-28.7 -82.3,-53.02 -122.5,-80.74 -13.9,-1.35 -28,-2.27 -42.1,-2.83 0,-0.19 0,-0.39 0,-0.59 -1.3,0 -2.6,-0.04 -3.9,-0.04 -4.2,0 -8.3,0.08 -12.5,0.15 -4.1,-0.07 -8.2,-0.15 -12.4,-0.15 -1.3,0 -2.6,0.04 -3.9,0.04 0,0.2 0,0.4 0,0.59 -14.1,0.56 -28.2,1.48 -42.1,2.83 -32.4,22.36 -64.9,44.71 -97.4,67.02 -73.7,50.61 -137.2,95.78 -188.5,170.68 -39.1,57.09 -70.1,119.29 -97,182.91 -24.7,58.38 -50.8,121.23 -43.5,185.99 3.3,29.53 17,68.41 38.3,90.17" /><path
         id="path78"
         style="fill:#f1cc26;fill-opacity:1;fill-rule:nonzero;stroke:none"
         d="M 13330.5,2690.07 H 9800.95 c -97.26,0 -188.24,-48.06 -243.06,-128.4 l -435.93,-638.83 c -33.35,-48.88 -51.19,-106.68 -51.19,-165.86 v -545.62 c 0,-40.17 32.57,-72.74 72.74,-72.74 h 4431.59 c 40.2,0 72.8,32.57 72.8,72.74 v 1161.33 c 0,175.28 -142.1,317.38 -317.4,317.38" /><path
         id="path80"
         style="fill:#6c858e;fill-opacity:1;fill-rule:nonzero;stroke:none"
         d="m 9675.1,5827.15 h -596.06 v 894.11 h 596.06 v -894.11" /><path
         id="path82"
         style="fill:#6c858e;fill-opacity:1;fill-rule:nonzero;stroke:none"
         d="m 12996,4442.45 -728.1,-196.29 -614.3,2278.82 728.2,196.28 614.2,-2278.81" /><path
         id="path84"
         style="fill:#f1cc26;fill-opacity:1;fill-rule:nonzero;stroke:none"
         d="m 12495.6,7022.96 c -39.4,43.75 -95,69.44 -153.8,71.06 l -3154.88,86.59 c -118.65,3.25 -217.49,-90.3 -220.74,-208.95 l -10.72,-390.37 c -3.05,-111.38 79.52,-206.64 190.22,-219.41 l 3114.02,-359.3 c 58,-6.7 116.3,10.51 161.3,47.64 45.1,37.14 73.1,91.01 77.6,149.23 l 51.5,663.07 c 4.6,58.69 -15.1,116.69 -54.5,160.44" /><path
         id="path86"
         style="fill:#6c858e;fill-opacity:1;fill-rule:nonzero;stroke:none"
         d="m 12353.9,4001.44 h -1763.1 c -40.2,0 -72.8,-32.57 -72.8,-72.74 v -922.17 h 1908.7 v 922.17 c 0,40.17 -32.6,72.74 -72.8,72.74" /><path
         id="path88"
         style="fill:#d0b324;fill-opacity:1;fill-rule:nonzero;stroke:none"
         d="m 12548.8,3006.53 h -2152.9 c -40.2,0 -72.7,-32.57 -72.7,-72.74 v -243.72 h 2298.3 v 243.72 c 0,40.17 -32.5,72.74 -72.7,72.74" /><path
         id="path90"
         style="fill:#f1cc26;fill-opacity:1;fill-rule:nonzero;stroke:none"
         d="m 12260.8,5117.88 -1232.4,-968.95 c -141.2,-111.06 -165.7,-315.6 -54.6,-456.84 l 262.2,-333.44 c 111,-141.25 315.6,-165.73 456.8,-54.67 l 1232.3,968.95 c 141.3,111.06 165.7,315.6 54.7,456.85 l -262.2,333.44 c -111.1,141.24 -315.6,165.72 -456.8,54.66" /><path
         id="path92"
         style="fill:#56676e;fill-opacity:1;fill-rule:nonzero;stroke:none"
         d="m 11259.6,3937.34 c -99.1,-77.8 -116.5,-221.26 -38.7,-320.44 77.8,-99.17 221.3,-116.5 320.5,-38.7 99.1,77.8 116.5,221.26 38.7,320.44 -77.8,99.17 -221.3,116.5 -320.5,38.7" /><path
         id="path94"
         style="fill:#6c858e;fill-opacity:1;fill-rule:nonzero;stroke:none"
         d="m 11514.7,3847.59 c 49.6,-63.08 38.7,-154.44 -24.4,-204.05 -63.1,-49.6 -154.4,-38.68 -204,24.4 -49.6,63.09 -38.7,154.45 24.4,204.06 63.1,49.61 154.4,38.68 204,-24.41" /><path
         id="path96"
         style="fill:#56676e;fill-opacity:1;fill-rule:nonzero;stroke:none"
         d="m 12412.2,4843.66 c -99.2,-77.8 -116.5,-221.26 -38.7,-320.43 77.8,-99.18 221.3,-116.51 320.4,-38.7 99.2,77.79 116.5,221.26 38.7,320.43 -77.8,99.17 -221.2,116.5 -320.4,38.7" /><path
         id="path98"
         style="fill:#6c858e;fill-opacity:1;fill-rule:nonzero;stroke:none"
         d="m 12667.3,4753.92 c 49.6,-63.09 38.7,-154.45 -24.4,-204.06 -63.1,-49.61 -154.5,-38.68 -204.1,24.41 -49.6,63.09 -38.7,154.44 24.4,204.05 63.1,49.61 154.5,38.68 204.1,-24.4" /><path
         id="path100"
         style="fill:#56676e;fill-opacity:1;fill-rule:nonzero;stroke:none"
         d="m 12032.7,6276.27 c 168.3,-4.26 308.2,128.7 312.5,296.99 4.3,168.28 -128.7,308.17 -297,312.44 -168.3,4.28 -308.2,-128.69 -312.4,-296.97 -4.3,-168.3 128.6,-308.18 296.9,-312.46" /><path
         id="path102"
         style="fill:#6c858e;fill-opacity:1;fill-rule:nonzero;stroke:none"
         d="m 11846.4,6585.69 c 2.6,107.15 91.6,191.91 198.8,189.32 107.1,-2.59 191.9,-91.56 189.3,-198.72 -2.6,-107.15 -91.6,-191.92 -198.7,-189.32 -107.2,2.6 -191.9,91.57 -189.4,198.72" /><path
         id="path104"
         style="fill:#56676e;fill-opacity:1;fill-rule:nonzero;stroke:none"
         d="m 9371.28,6526.61 c 126.01,-3.2 230.75,96.36 233.94,222.36 3.2,126.01 -96.35,230.75 -222.36,233.95 -126,3.21 -230.75,-96.35 -233.94,-222.36 -3.2,-126.01 96.35,-230.75 222.36,-233.95" /><path
         id="path106"
         style="fill:#6c858e;fill-opacity:1;fill-rule:nonzero;stroke:none"
         d="m 9231.8,6758.29 c 1.94,80.23 68.56,143.69 148.79,141.75 80.23,-1.94 143.7,-68.56 141.75,-148.79 -1.94,-80.23 -68.56,-143.7 -148.79,-141.76 -80.23,1.95 -143.7,68.56 -141.75,148.8" /><path
         id="path108"
         style="fill:#56676e;fill-opacity:1;fill-rule:nonzero;stroke:none"
         d="M 12426.7,3082.66 H 10518 v 151.72 h 1908.7 v -151.72" /><path
         id="path110"
         style="fill:#d0b324;fill-opacity:1;fill-rule:nonzero;stroke:none"
         d="m 9852.5,5712.67 h -897.12 v 217.79 h 897.12 v -217.79" /><path
         id="path112"
         style="fill:#f1cc26;fill-opacity:1;fill-rule:nonzero;stroke:none"
         d="M 9914.93,5539.55 H 8892.95 v 206.63 h 1021.98 v -206.63" /><path
         id="path114"
         style="fill:#4b4d50;fill-opacity:1;fill-rule:nonzero;stroke:none"
         d="m 10239.5,5521.23 c -10.8,11.68 -26,18.32 -42,18.32 h -150.3 -421.16 -444.21 -421.13 -150.37 c -15.93,0 -31.12,-6.64 -41.93,-18.32 -10.82,-11.68 -16.27,-27.35 -15.05,-43.22 l 84.72,-1098.36 c 2.14,-27.8 25.33,-49.26 53.21,-49.26 h 16.05 c 29.48,0 53.37,23.89 53.37,53.37 v 930.99 c 0,29.48 23.89,53.37 53.37,53.37 h 491.58 196.58 491.58 c 29.49,0 53.39,-23.89 53.39,-53.37 v -930.99 c 0,-29.48 23.9,-53.37 53.3,-53.37 h 16.1 c 27.9,0 51.1,21.46 53.2,49.26 l 84.7,1098.36 c 1.2,15.87 -4.2,31.54 -15,43.22" /><path
         id="path116"
         style="fill:#56676e;fill-opacity:1;fill-rule:nonzero;stroke:none"
         d="m 10555.3,1109.91 c 7.2,0 14.1,2.93 19.1,8.12 5,5.19 7.7,12.18 7.5,19.39 -14.5,412.25 -353.3,741.99 -769.07,741.99 -415.78,0 -754.54,-329.74 -769.03,-741.99 -0.25,-7.2 2.44,-14.19 7.44,-19.38 5.01,-5.19 11.9,-8.13 19.11,-8.13 h 1484.95" /><path
         id="path118"
         style="fill:#4b4d50;fill-opacity:1;fill-rule:nonzero;stroke:none"
         d="m 10460,1108.17 c 0,-357.408 -289.8,-647.139 -647.17,-647.139 -357.41,0 -647.14,289.731 -647.14,647.139 0,357.4 289.73,647.13 647.14,647.13 357.37,0 647.17,-289.73 647.17,-647.13" /><path
         id="path120"
         style="fill:#636668;fill-opacity:1;fill-rule:nonzero;stroke:none"
         d="m 10128.3,1108.17 c 0,-174.209 -141.27,-315.432 -315.47,-315.432 -174.21,0 -315.43,141.223 -315.43,315.432 0,174.2 141.22,315.42 315.43,315.42 174.2,0 315.47,-141.22 315.47,-315.42" /><path
         id="path122"
         style="fill:#5d5151;fill-opacity:1;fill-rule:nonzero;stroke:none"
         d="m 9885.61,1108.17 c 0,-40.2 -32.59,-72.78 -72.78,-72.78 -40.19,0 -72.78,32.58 -72.78,72.78 0,40.19 32.59,72.77 72.78,72.77 40.19,0 72.78,-32.58 72.78,-72.77" /><path
         id="path124"
         style="fill:#5d5151;fill-opacity:1;fill-rule:nonzero;stroke:none"
         d="m 9847.32,1321.69 c 0,-19.05 -15.44,-34.49 -34.49,-34.49 -19.06,0 -34.5,15.44 -34.5,34.49 0,19.05 15.44,34.49 34.5,34.49 19.05,0 34.49,-15.44 34.49,-34.49" /><path
         id="path126"
         style="fill:#5d5151;fill-opacity:1;fill-rule:nonzero;stroke:none"
         d="m 9847.32,894.641 c 0,-19.039 -15.44,-34.489 -34.49,-34.489 -19.06,0 -34.5,15.45 -34.5,34.489 0,19.058 15.44,34.5 34.5,34.5 19.05,0 34.49,-15.442 34.49,-34.5" /><path
         id="path128"
         style="fill:#5d5151;fill-opacity:1;fill-rule:nonzero;stroke:none"
         d="m 10026.3,1073.68 c -19,0 -34.44,15.44 -34.44,34.49 0,19.05 15.44,34.49 34.44,34.49 19.1,0 34.5,-15.44 34.5,-34.49 0,-19.05 -15.4,-34.49 -34.5,-34.49" /><path
         id="path130"
         style="fill:#5d5151;fill-opacity:1;fill-rule:nonzero;stroke:none"
         d="m 9599.31,1073.68 c -19.05,0 -34.5,15.44 -34.5,34.49 0,19.05 15.45,34.49 34.5,34.49 19.04,0 34.49,-15.44 34.49,-34.49 0,-19.05 -15.45,-34.49 -34.49,-34.49" /><path
         id="path132"
         style="fill:#5d5151;fill-opacity:1;fill-rule:nonzero;stroke:none"
         d="m 9686.24,1283.54 c 13.47,-13.47 13.47,-35.31 0,-48.78 -13.48,-13.47 -35.31,-13.47 -48.78,0 -13.48,13.47 -13.48,35.31 0,48.78 13.47,13.47 35.3,13.47 48.78,0" /><path
         id="path134"
         style="fill:#5d5151;fill-opacity:1;fill-rule:nonzero;stroke:none"
         d="m 9988.2,981.582 c 13.5,-13.473 13.5,-35.32 0,-48.793 -13.47,-13.457 -35.31,-13.457 -48.78,0 -13.47,13.473 -13.47,35.32 0,48.793 13.47,13.457 35.31,13.457 48.78,0" /><path
         id="path136"
         style="fill:#5d5151;fill-opacity:1;fill-rule:nonzero;stroke:none"
         d="m 9988.2,1234.76 c -13.47,-13.47 -35.31,-13.47 -48.78,0 -13.47,13.47 -13.47,35.31 0,48.78 13.47,13.47 35.31,13.47 48.78,0 13.5,-13.47 13.5,-35.31 0,-48.78" /><path
         id="path138"
         style="fill:#5d5151;fill-opacity:1;fill-rule:nonzero;stroke:none"
         d="m 9686.24,932.789 c -13.48,-13.457 -35.31,-13.457 -48.78,0 -13.48,13.473 -13.48,35.32 0,48.793 13.47,13.457 35.3,13.457 48.78,0 13.47,-13.473 13.47,-35.32 0,-48.793" /><path
         id="path140"
         style="fill:#56676e;fill-opacity:1;fill-rule:nonzero;stroke:none"
         d="m 13721.3,1120.63 c 7.2,0 14.1,2.93 19.1,8.12 5,5.19 7.7,12.19 7.4,19.39 -14.5,412.25 -353.2,742 -769,742 -415.8,0 -754.5,-329.75 -769,-742 -0.3,-7.2 2.4,-14.19 7.4,-19.38 5,-5.19 11.9,-8.13 19.1,-8.13 h 1485" /><path
         id="path142"
         style="fill:#4b4d50;fill-opacity:1;fill-rule:nonzero;stroke:none"
         d="m 13625.9,1118.89 c 0,-357.41 -289.7,-647.14 -647.1,-647.14 -357.4,0 -647.1,289.73 -647.1,647.14 0,357.4 289.7,647.14 647.1,647.14 357.4,0 647.1,-289.74 647.1,-647.14" /><path
         id="path144"
         style="fill:#636668;fill-opacity:1;fill-rule:nonzero;stroke:none"
         d="m 13294.2,1118.89 c 0,-174.21 -141.2,-315.429 -315.4,-315.429 -174.2,0 -315.4,141.219 -315.4,315.429 0,174.2 141.2,315.42 315.4,315.42 174.2,0 315.4,-141.22 315.4,-315.42" /><path
         id="path146"
         style="fill:#5d5151;fill-opacity:1;fill-rule:nonzero;stroke:none"
         d="m 13051.6,1118.89 c 0,-40.19 -32.6,-72.78 -72.8,-72.78 -40.2,0 -72.8,32.59 -72.8,72.78 0,40.19 32.6,72.78 72.8,72.78 40.2,0 72.8,-32.59 72.8,-72.78" /><path
         id="path148"
         style="fill:#5d5151;fill-opacity:1;fill-rule:nonzero;stroke:none"
         d="m 13013.3,1332.41 c 0,-19.05 -15.4,-34.49 -34.5,-34.49 -19,0 -34.5,15.44 -34.5,34.49 0,19.05 15.5,34.49 34.5,34.49 19.1,0 34.5,-15.44 34.5,-34.49" /><path
         id="path150"
         style="fill:#5d5151;fill-opacity:1;fill-rule:nonzero;stroke:none"
         d="m 13013.3,905.371 c 0,-19.051 -15.4,-34.5 -34.5,-34.5 -19,0 -34.5,15.449 -34.5,34.5 0,19.039 15.5,34.488 34.5,34.488 19.1,0 34.5,-15.449 34.5,-34.488" /><path
         id="path152"
         style="fill:#5d5151;fill-opacity:1;fill-rule:nonzero;stroke:none"
         d="m 13192.3,1084.39 c -19,0 -34.5,15.45 -34.5,34.5 0,19.04 15.5,34.49 34.5,34.49 19.1,0 34.5,-15.45 34.5,-34.49 0,-19.05 -15.4,-34.5 -34.5,-34.5" /><path
         id="path154"
         style="fill:#5d5151;fill-opacity:1;fill-rule:nonzero;stroke:none"
         d="m 12765.3,1084.39 c -19.1,0 -34.5,15.45 -34.5,34.5 0,19.04 15.4,34.49 34.5,34.49 19,0 34.5,-15.45 34.5,-34.49 0,-19.05 -15.5,-34.5 -34.5,-34.5" /><path
         id="path156"
         style="fill:#5d5151;fill-opacity:1;fill-rule:nonzero;stroke:none"
         d="m 12852.2,1294.26 c 13.5,-13.47 13.5,-35.31 0,-48.78 -13.5,-13.47 -35.3,-13.47 -48.8,0 -13.4,13.47 -13.4,35.31 0,48.78 13.5,13.47 35.3,13.47 48.8,0" /><path
         id="path158"
         style="fill:#5d5151;fill-opacity:1;fill-rule:nonzero;stroke:none"
         d="m 13154.2,992.289 c 13.4,-13.457 13.4,-35.301 0,-48.769 -13.5,-13.481 -35.3,-13.481 -48.8,0 -13.5,13.468 -13.5,35.312 0,48.769 13.5,13.481 35.3,13.481 48.8,0" /><path
         id="path160"
         style="fill:#5d5151;fill-opacity:1;fill-rule:nonzero;stroke:none"
         d="m 13154.2,1245.48 c -13.5,-13.47 -35.3,-13.47 -48.8,0 -13.5,13.47 -13.5,35.31 0,48.78 13.5,13.47 35.3,13.47 48.8,0 13.4,-13.47 13.4,-35.31 0,-48.78" /><path
         id="path162"
         style="fill:#5d5151;fill-opacity:1;fill-rule:nonzero;stroke:none"
         d="m 12852.2,943.52 c -13.5,-13.481 -35.3,-13.481 -48.8,0 -13.4,13.468 -13.4,35.312 0,48.769 13.5,13.481 35.3,13.481 48.8,0 13.5,-13.457 13.5,-35.301 0,-48.769" /><path
         id="path164"
         style="fill:#4b4d50;fill-opacity:1;fill-rule:nonzero;stroke:none"
         d="m 13259.2,2435.17 h -560.8 c -13.4,0 -24.3,-10.87 -24.3,-24.29 v -4.12 c 0,-13.41 10.9,-24.28 24.3,-24.28 h 560.8 c 13.5,0 24.3,10.87 24.3,24.28 v 4.12 c 0,13.42 -10.8,24.29 -24.3,24.29" /><path
         id="path166"
         style="fill:#4b4d50;fill-opacity:1;fill-rule:nonzero;stroke:none"
         d="m 13259.2,2361.14 h -560.8 c -13.4,0 -24.3,-10.87 -24.3,-24.28 v -4.13 c 0,-13.41 10.9,-24.28 24.3,-24.28 h 560.8 c 13.5,0 24.3,10.87 24.3,24.28 v 4.13 c 0,13.41 -10.8,24.28 -24.3,24.28" /><path
         id="path168"
         style="fill:#4b4d50;fill-opacity:1;fill-rule:nonzero;stroke:none"
         d="m 13259.2,2285.56 h -560.8 c -13.4,0 -24.3,-10.87 -24.3,-24.28 v -4.12 c 0,-13.41 10.9,-24.29 24.3,-24.29 h 560.8 c 13.5,0 24.3,10.88 24.3,24.29 v 4.12 c 0,13.41 -10.8,24.28 -24.3,24.28" /><path
         id="path170"
         style="fill:#4b4d50;fill-opacity:1;fill-rule:nonzero;stroke:none"
         d="m 13259.2,2211.53 h -560.8 c -13.4,0 -24.3,-10.87 -24.3,-24.28 v -4.13 c 0,-13.41 10.9,-24.28 24.3,-24.28 h 560.8 c 13.5,0 24.3,10.87 24.3,24.28 v 4.13 c 0,13.41 -10.8,24.28 -24.3,24.28" /><path
         id="path172"
         style="fill:#4ea95b;fill-opacity:1;fill-rule:nonzero;stroke:none"
         d="m 8934.83,5077.74 c 23.02,21.09 55.07,29.28 85.37,21.76 63.05,-15.64 158.32,-80.82 178.34,-327.87 25.86,-318.92 22.5,-404.02 212.89,-509.24 190.42,105.22 187.07,190.32 212.93,509.24 20.02,247.05 115.29,312.23 178.34,327.87 30.25,7.51 62.39,-0.7 85.38,-21.76 143.92,-131.84 234.22,-321.33 234.22,-531.94 0,-312.79 -199.15,-579.13 -477.58,-679.06 -73.03,-26.2 -151.51,-40.97 -233.29,-42.09 -81.77,1.12 -160.22,15.89 -233.25,42.09 -278.43,99.93 -477.56,366.27 -477.56,679.06 0,210.61 90.26,400.1 234.21,531.94" /><path
         id="path174"
         style="fill:#3e9b55;fill-opacity:1;fill-rule:nonzero;stroke:none"
         d="m 8958.42,4521.09 c 146.32,149.11 306.09,345.67 216.04,481.22 -79.81,120.13 70.01,241.59 196.06,259.45 6.27,0.4 12.57,0.72 18.88,0.97 1.02,0.28 2.04,0.49 3.09,0.59 4.15,0 8.3,-0.04 12.44,-0.12 4.14,0.08 8.29,0.12 12.44,0.12 1.05,-0.1 2.07,-0.31 3.09,-0.59 6.31,-0.25 12.61,-0.57 18.88,-0.97 126.05,-17.86 275.87,-139.32 196.06,-259.45 -90.05,-135.55 69.72,-332.11 216.05,-481.22 70.12,-71.47 31.47,-187.44 -1.28,-265.16 -58.01,-137.65 -142.29,-262.39 -264.33,-350.87 -39.57,-28.69 -82.22,-53.01 -122.49,-80.73 -13.91,-1.36 -27.94,-2.28 -42.07,-2.85 -0.01,-0.18 -0.03,-0.39 -0.04,-0.57 -1.29,-0.01 -2.57,-0.05 -3.87,-0.05 -4.16,0 -8.3,0.08 -12.44,0.15 -4.14,-0.07 -8.28,-0.15 -12.44,-0.15 -1.3,0 -2.58,0.04 -3.87,0.05 -0.02,0.18 -0.03,0.39 -0.05,0.57 -14.12,0.57 -28.15,1.49 -42.07,2.85 -32.46,22.34 -64.92,44.71 -97.42,67.02 -73.69,50.6 -137.18,95.77 -188.49,170.67 -39.13,57.1 -70.07,119.29 -97.02,182.91 -24.73,58.38 -50.77,121.24 -43.52,186 3.3,29.52 17.02,68.4 38.37,90.16" /><path
         id="path176"
         style="fill:#e3ac2f;fill-opacity:1;fill-rule:nonzero;stroke:none"
         d="m 3771.41,3682.15 -994.26,231.38 -986.69,-231.38 v 0 -1925.99 h 1980.95 v 1925.99 0" /><path
         id="path178"
         style="fill:#f9ac7b;fill-opacity:1;fill-rule:nonzero;stroke:none"
         d="M 2780.93,4558.76 H 2446.87 V 3468.75 H 3115 v 1090.01 h -334.07" /><path
         id="path180"
         style="fill:#e3ac2f;fill-opacity:1;fill-rule:nonzero;stroke:none"
         d="m 1348.47,2472.27 c 7.81,-137.04 -96.94,-254.45 -233.97,-262.27 -137.027,-7.81 -254.445,96.94 -262.266,233.97 -7.804,137.03 96.946,254.45 233.976,262.27 137.03,7.81 254.45,-96.94 262.26,-233.97" /><path
         id="path182"
         style="fill:#e3ac2f;fill-opacity:1;fill-rule:nonzero;stroke:none"
         d="m 2099.99,3410.17 c -7.21,91.49 -51.81,173.45 -123.22,225.37 l -25.71,18.68 c -71.46,51.96 -163.01,69.36 -252.32,47.98 -89.32,-21.38 -168.11,-79.64 -217.35,-160.42 -186.83,-306.48 -406.41,-652.07 -593.292,-958.55 -9.493,-15.56 -6.239,-35.21 7.531,-45.22 l 353.031,-242.4 c 13.79,-10.03 33.43,-7.07 45.33,6.77 233.97,272.24 486.74,579.44 720.66,851.68 61.62,71.71 92.53,164.62 85.34,256.11" /><path
         id="path184"
         style="fill:#e3ac2f;fill-opacity:1;fill-rule:nonzero;stroke:none"
         d="m 1852.01,3309.12 c -34.73,-47.76 -101.6,-58.33 -149.36,-23.61 -47.77,34.72 -58.34,101.6 -23.61,149.36 34.72,47.76 101.59,58.33 149.35,23.61 47.77,-34.73 58.34,-101.6 23.62,-149.36" /><path
         id="path186"
         style="fill:#e3ac2f;fill-opacity:1;fill-rule:nonzero;stroke:none"
         d="m 4295.6,2537.2 c 14.62,-136.48 137.52,-235.3 274.49,-220.73 136.97,14.58 236.14,137.04 221.52,273.52 -14.64,136.47 -137.53,235.29 -274.5,220.72 -136.97,-14.58 -236.14,-137.03 -221.51,-273.51" /><path
         id="path188"
         style="fill:#e3ac2f;fill-opacity:1;fill-rule:nonzero;stroke:none"
         d="m 3398.34,3340.4 c -7.8,91.45 22.99,179.57 85.23,242.41 l 22.4,22.61 c 62.29,62.89 150.11,94.95 242.04,88.38 91.93,-6.57 179.46,-51.25 241.41,-122.95 235.03,-272 508.87,-577.29 743.95,-849.29 11.94,-13.82 11.92,-33.73 -0.08,-45.85 l -310.02,-296.58 c -12.02,-12.14 -31.95,-12.42 -46,-0.7 -276.12,230.57 -576.56,492.58 -852.63,723.15 -72.72,60.73 -118.49,147.38 -126.3,238.82" /><path
         id="path190"
         style="fill:#e3ac2f;fill-opacity:1;fill-rule:nonzero;stroke:none"
         d="m 3660.39,3281.03 c 42.18,-41.49 110.13,-41.04 151.75,0.99 41.63,42.03 41.19,109.73 -0.99,151.21 -42.19,41.48 -110.13,41.03 -151.76,-0.99 -41.63,-42.03 -41.18,-109.74 1,-151.21" /><path
         id="path192"
         style="fill:#e69c31;fill-opacity:1;fill-rule:nonzero;stroke:none"
         d="M 2863.4,1756.16 H 2698.47 V 3502.52 H 2863.4 V 1756.16" /><path
         id="path194"
         style="fill:#3f9384;fill-opacity:1;fill-rule:nonzero;stroke:none"
         d="M 3771.27,1756.16 H 1790.33 V -463.199 h 608.23 V 1099.74 c 0,48.07 49.1,87.06 109.66,87.06 h 545.43 c 60.56,0 109.65,-38.99 109.65,-87.06 V -463.199 h 608.24 V 1756.16 h -0.27" /><path
         id="path196"
         style="fill:#ebe9e4;fill-opacity:1;fill-rule:nonzero;stroke:none"
         d="m 2814.88,3159.18 c 0,-15.41 -15.75,-27.93 -35.17,-27.93 -19.42,0 -35.17,12.52 -35.17,27.93 0,15.42 15.75,27.92 35.17,27.92 19.42,0 35.17,-12.5 35.17,-27.92" /><path
         id="path198"
         style="fill:#ebe9e4;fill-opacity:1;fill-rule:nonzero;stroke:none"
         d="m 2814.88,2579.48 c 0,-15.42 -15.75,-27.92 -35.17,-27.92 -19.42,0 -35.17,12.5 -35.17,27.92 0,15.43 15.75,27.93 35.17,27.93 19.42,0 35.17,-12.5 35.17,-27.93" /><path
         id="path200"
         style="fill:#ebe9e4;fill-opacity:1;fill-rule:nonzero;stroke:none"
         d="m 2817.33,1951.33 c 0,-15.41 -15.75,-27.92 -35.17,-27.92 -19.43,0 -35.18,12.51 -35.18,27.92 0,15.43 15.75,27.94 35.18,27.94 19.42,0 35.17,-12.51 35.17,-27.94" /><path
         id="path202"
         style="fill:#e99132;fill-opacity:1;fill-rule:nonzero;stroke:none"
         d="m 2394.92,3820.62 c -4.76,3.92 -11.18,5.19 -17.08,3.37 l -102.19,-31.42 c -10.08,-3.1 -18.24,-10.8 -22.17,-20.9 -3.92,-10.1 -3.17,-21.5 2.03,-30.97 l 248.76,-452.21 c 11.97,-21.76 33.74,-35.77 57.87,-37.26 24.14,-1.5 47.36,9.74 61.75,29.85 l 158.27,221.44 -387.24,318.1" /><path
         id="path204"
         style="fill:#e99132;fill-opacity:1;fill-rule:nonzero;stroke:none"
         d="m 3308.38,3771.67 c -3.92,10.1 -12.09,17.8 -22.17,20.9 l -102.19,31.42 c -5.89,1.82 -12.31,0.55 -17.08,-3.37 l -387.23,-318.1 158.27,-221.44 c 14.38,-20.11 37.61,-31.35 61.74,-29.85 24.14,1.49 45.91,15.5 57.87,37.26 l 248.77,452.21 c 5.2,9.47 5.94,20.87 2.02,30.97" /><path
         id="path206"
         style="fill:#e7634a;fill-opacity:1;fill-rule:nonzero;stroke:none"
         d="m 3341.15,3803.28 c -6.17,2.08 -12.86,0.8 -18.03,-3.45 -5.18,-4.24 -8.23,-19.13 -8.23,-26.27 V 1675.13 h 181.14 v 2075.66 c 0,9.9 -5.85,18.64 -14.41,21.52 l -140.47,30.97" /><path
         id="path208"
         style="fill:#4f5253;fill-opacity:1;fill-rule:nonzero;stroke:none"
         d="m 3496.03,1659.11 c 0,-50.28 -35.43,-91.02 -79.14,-91.02 h -22.87 c -43.71,0 -79.13,40.74 -79.13,91.02 V 1755 h 181.14 v -95.89" /><path
         id="path210"
         style="fill:#e7634a;fill-opacity:1;fill-rule:nonzero;stroke:none"
         d="m 2220.72,3803.28 c 6.17,2.08 12.85,0.8 18.03,-3.45 5.18,-4.24 8.23,-19.13 8.23,-26.27 V 1675.13 h -181.14 v 2075.66 c 0,9.9 5.85,18.64 14.41,21.52 l 140.47,30.97" /><path
         id="path212"
         style="fill:#4f5253;fill-opacity:1;fill-rule:nonzero;stroke:none"
         d="m 2065.84,1659.11 c 0,-50.28 35.42,-91.02 79.14,-91.02 h 22.87 c 43.7,0 79.13,40.74 79.13,91.02 V 1755 h -181.14 v -95.89" /><path
         id="path214"
         style="fill:#f9ac7b;fill-opacity:1;fill-rule:nonzero;stroke:none"
         d="m 1584.04,2507.59 -156.82,299.97 243.31,127.2 156.82,-299.97 -243.31,-127.2" /><path
         id="path216"
         style="fill:#3a8578;fill-opacity:1;fill-rule:nonzero;stroke:none"
         d="m 1057.94,2527.07 c 43.31,22.42 96.23,6.17 118.19,-36.28 21.97,-42.46 4.67,-95.04 -38.64,-117.46 -43.31,-22.42 -96.23,-6.17 -118.19,36.28 -21.964,42.46 -4.66,95.04 38.64,117.46" /><path
         id="path218"
         style="fill:#e4b833;fill-opacity:1;fill-rule:nonzero;stroke:none"
         d="m 885.859,2358.86 14.954,-28.9 c 58.363,-112.8 196.037,-160.05 311.097,-100.49 l 535.95,280.71 c 9.96,5.16 13.94,17.25 8.89,27.01 l -218.07,396.48 c -5.05,9.76 -17.22,13.5 -27.17,8.34 L 980.684,2669.49 C 865.609,2609.92 827.496,2471.67 885.859,2358.86" /><path
         id="path220"
         style="fill:#e4b833;fill-opacity:1;fill-rule:nonzero;stroke:none"
         d="m 990.469,2674.56 c 124.351,64.37 276.291,17.73 339.361,-104.18 63.08,-121.9 13.39,-272.9 -110.96,-337.27 -124.35,-64.37 -276.296,-17.72 -339.366,104.18 -63.074,121.9 -13.391,272.91 110.965,337.27" /><path
         id="path222"
         style="fill:#fab685;fill-opacity:1;fill-rule:nonzero;stroke:none"
         d="m 2146.7,3081.8 c -44.81,75.88 -136.83,106.06 -205.54,67.42 l -227.72,-128.07 c -68.7,-38.65 -88.08,-131.48 -43.27,-207.36 l 51.45,-87.12 c 51.22,-86.72 156.4,-121.23 234.94,-77.06 l 209.92,118.07 c 68.71,38.64 88.08,131.48 43.27,207.35 l -63.05,106.77" /><path
         id="path224"
         style="fill:#fab685;fill-opacity:1;fill-rule:nonzero;stroke:none"
         d="m 2310.45,2512.8 -261.85,446.03 127.33,71.62 261.85,-446.04 c 16.08,-27.22 6.4,-62.06 -21.62,-77.81 l -25.87,-14.56 c -28.02,-15.76 -63.76,-6.46 -79.84,20.76" /><path
         id="path226"
         style="fill:#3a444b;fill-opacity:1;fill-rule:nonzero;stroke:none"
         d="M 3655.12,3143.71 H 2201.17 c -35.75,0 -64.99,-29.25 -64.99,-64.98 v -877.11 c 0,-35.71 29.24,-64.96 64.99,-64.96 h 725.79 728.16 c 35.71,0 64.98,29.25 64.98,64.96 v 877.11 c 0,35.73 -29.27,64.98 -64.98,64.98" /><path
         id="path228"
         style="fill:#f9ac7b;fill-opacity:1;fill-rule:nonzero;stroke:none"
         d="m 3134.41,2589.57 c -11.77,11.79 -18.36,27.77 -18.33,44.41 l 0.01,2.42 c 0.07,34.66 28.26,62.71 62.97,62.65 l 433.58,-0.8 -0.23,-127.96 -433.58,0.8 c -16.67,0.04 -32.65,6.68 -44.42,18.48" /><path
         id="path230"
         style="fill:#f9ac7b;fill-opacity:1;fill-rule:nonzero;stroke:none"
         d="m 3171.62,2739.04 c -11.77,11.79 -18.36,27.77 -18.33,44.42 l 0.01,2.41 c 0.06,34.67 28.26,62.71 62.97,62.65 l 433.57,-0.79 -0.23,-127.97 -433.57,0.81 c -16.67,0.03 -32.66,6.67 -44.42,18.47" /><path
         id="path232"
         style="fill:#f9ac7b;fill-opacity:1;fill-rule:nonzero;stroke:none"
         d="m 3159.21,2440.91 c -11.76,11.8 -18.36,27.78 -18.32,44.43 v 2.41 c 0.07,34.66 28.27,62.71 62.98,62.65 l 433.57,-0.79 -0.23,-127.97 -433.58,0.81 c -16.67,0.03 -32.65,6.67 -44.42,18.46" /><path
         id="path234"
         style="fill:#f9ac7b;fill-opacity:1;fill-rule:nonzero;stroke:none"
         d="m 3252.58,2278.46 c -16.67,0.03 -32.64,6.67 -44.42,18.46 -11.76,11.8 -18.36,27.78 -18.32,44.43 v 2.4 c 0.07,34.67 28.27,62.72 62.98,62.66 l 433.57,-0.79 -0.23,-127.97 -433.58,0.81" /><path
         id="path236"
         style="fill:#f9ac7b;fill-opacity:1;fill-rule:nonzero;stroke:none"
         d="m 3482.51,2444.61 v 403.41 l 237.18,0.5 v 68.67 h 23.75 c 81.09,0 146.82,-74.75 146.82,-166.96 v -305.62 c 0,-92.21 -65.73,-166.96 -146.82,-166.96 h -114.1 c -81.09,0 -146.83,74.75 -146.83,166.96" /><path
         id="path238"
         style="fill:#f9ac7b;fill-opacity:1;fill-rule:nonzero;stroke:none"
         d="m 4087.81,2389.19 v 338.49 h -270.09 v -338.49 h 270.09" /><path
         id="path240"
         style="fill:#3a8578;fill-opacity:1;fill-rule:nonzero;stroke:none"
         d="m 4537.58,2650.2 c -47.98,-0.2 -86.7,-39.12 -86.5,-86.91 0.2,-47.81 39.25,-86.39 87.22,-86.2 47.97,0.2 86.7,39.12 86.5,86.92 -0.21,47.8 -39.25,86.38 -87.22,86.19" /><path
         id="path242"
         style="fill:#e4b833;fill-opacity:1;fill-rule:nonzero;stroke:none"
         d="m 4764.26,2580.85 0.13,-32.53 c 0.54,-127.01 -97.95,-232.66 -225.41,-233.19 l -595.17,0.46 c -11.03,-0.04 -20.01,8.83 -20.05,19.82 l 9.4,452.39 c -0.05,10.99 8.86,19.93 19.89,19.98 l 586.97,4.42 c 127.47,0.52 223.71,-104.33 224.24,-231.35" /><path
         id="path244"
         style="fill:#e4b833;fill-opacity:1;fill-rule:nonzero;stroke:none"
         d="m 4536.9,2812.16 c -137.75,-0.57 -248.95,-112.3 -248.37,-249.55 0.57,-137.25 112.7,-248.05 250.45,-247.48 137.74,0.57 248.94,112.3 248.37,249.55 -0.58,137.25 -112.71,248.05 -250.45,247.48" /><path
         id="path246"
         style="fill:#fab685;fill-opacity:1;fill-rule:nonzero;stroke:none"
         d="m 2150.62,5338.84 c 0,-186.65 -132.69,-337.96 -296.35,-337.96 -163.66,0 -296.34,151.31 -296.34,337.96 0,186.65 132.68,337.95 296.34,337.95 163.66,0 296.35,-151.3 296.35,-337.95" /><path
         id="path248"
         style="fill:#fab685;fill-opacity:1;fill-rule:nonzero;stroke:none"
         d="m 4021.22,5338.84 c 0,-186.65 -132.68,-337.96 -296.35,-337.96 -163.66,0 -296.33,151.31 -296.33,337.96 0,186.65 132.67,337.95 296.33,337.95 163.67,0 296.35,-151.3 296.35,-337.95" /><path
         id="path250"
         style="fill:#fbc290;fill-opacity:1;fill-rule:nonzero;stroke:none"
         d="M 1742.68,6755.94 V 5019.13 c 0,-378.59 372.4,-685.5 831.78,-685.5 h 430.22 c 459.39,0 831.79,306.91 831.79,685.5 V 6755.94 H 1742.68" /><path
         id="path252"
         style="fill:#f9ac7b;fill-opacity:1;fill-rule:nonzero;stroke:none"
         d="m 2977.46,5107.01 -125.73,438.41 c -12.82,43.34 -36.51,70.04 -62.16,70.04 -25.65,0 -49.35,-26.7 -62.18,-70.04 l -125.72,-438.41 c -12.81,-43.37 -12.81,-83.38 0,-126.72 12.83,-43.36 49.94,-56.67 75.58,-56.67 h 112.32 112.31 c 25.65,0 62.75,13.31 75.58,56.67 12.82,43.34 12.82,83.35 0,126.72" /><path
         id="path254"
         style="fill:#564543;fill-opacity:1;fill-rule:nonzero;stroke:none"
         d="m 1742.12,5902.66 93.71,482.3 c 3.45,19.21 17.21,32.88 33.11,32.88 h 106.16 c 18.75,0 33.94,18.82 33.94,42.02 v 315.04 h -286.73 v -852.44 c 0,-10.94 8.87,-19.8 19.81,-19.8" /><path
         id="path256"
         style="fill:#564543;fill-opacity:1;fill-rule:nonzero;stroke:none"
         d="m 3603.85,6417.84 h 106.18 c 15.89,0 29.66,-13.67 33.11,-32.88 l 93.72,-482.3 c 10.94,0 19.8,8.86 19.8,19.8 v 852.44 h -286.73 v -315.04 c 0,-23.2 15.19,-42.02 33.92,-42.02" /><path
         id="path258"
         style="fill:#564543;fill-opacity:1;fill-rule:nonzero;stroke:none"
         d="m 3886.09,7049.76 c -0.23,1.74 -1.46,3.15 -3.15,3.63 -1.68,0.48 -3.47,-0.09 -4.58,-1.44 -10.61,-12.97 -46.28,-40.74 -107.04,-60.27 -1.93,-0.62 -4,-0.55 -5.46,0.83 -1.48,1.38 -1.99,3.52 -1.24,5.4 52.9,131.85 6.86,289.61 -0.02,316.45 -0.5,1.99 -2.32,3.33 -4.39,3.27 -2.06,-0.08 -3.78,-1.57 -4.15,-3.59 -2.84,-15.85 -9.91,-37.14 -27.35,-52.34 -105.38,-91.88 -386.72,60.31 -773.44,81.6 -375.07,20.64 -705.58,-212.42 -725.09,-226.43 -0.12,-0.08 -0.24,-0.08 -0.35,0.01 -0.09,0.08 -0.11,0.21 -0.06,0.32 19.55,38.14 34.31,78.57 43.87,120.34 0.43,1.85 -0.41,3.81 -2.08,4.76 -1.64,0.95 -3.75,0.74 -5.15,-0.56 -23.34,-21.52 -92.4,-67.38 -286.59,-117.4 -190.31,-49.01 -257.51,-216.23 -257.51,-349.44 0,-145.47 477.79,-263.41 1067.18,-263.41 589.39,0 1067.18,117.94 1067.18,263.41 0,1.06 -0.12,2.13 -0.17,3.19 42.69,134.7 33.84,239.9 29.59,271.67" /><path
         id="path260"
         style="fill:#564543;fill-opacity:1;fill-rule:nonzero;stroke:none"
         d="m 2373.38,5903.22 c 3.35,-38.25 -24.96,-72 -63.21,-75.34 l -225.7,-19.75 c -38.27,-3.35 -72,24.97 -75.35,63.21 v 0 c -3.34,38.27 24.95,72 63.22,75.35 l 225.7,19.75 c 38.26,3.35 71.99,-24.97 75.34,-63.22 v 0" /><path
         id="path262"
         style="fill:#564543;fill-opacity:1;fill-rule:nonzero;stroke:none"
         d="m 3570.03,5871.34 c -3.34,-38.24 -37.07,-66.56 -75.35,-63.21 l -225.69,19.75 c -38.25,3.34 -66.57,37.09 -63.21,75.34 v 0 c 3.35,38.25 37.08,66.57 75.34,63.22 l 225.7,-19.75 c 38.27,-3.35 66.56,-37.08 63.21,-75.35 v 0" /><path
         id="path264"
         style="fill:#564543;fill-opacity:1;fill-rule:nonzero;stroke:none"
         d="M 3819.92,6487.71 V 5337.43 c 0,-246.14 -199.53,-445.67 -445.67,-445.67 H 2204.92 c -246.15,0 -445.68,199.53 -445.68,445.67 v 1150.28 h -36.93 V 4964.95 c 0,-573.33 464.78,-1038.11 1038.11,-1038.11 h 28.73 v 2.17 l 0.86,-2.17 h 39.76 c 567.23,0 1027.07,459.84 1027.07,1027.08 v 1903.9 l -36.92,-370.11" /><path
         id="path266"
         style="fill:#ffffff;fill-opacity:1;fill-rule:nonzero;stroke:none"
         d="m 2362.87,5563.01 c 0,-87.42 -70.88,-158.3 -158.31,-158.3 -87.43,0 -158.3,70.88 -158.3,158.3 0,87.42 70.87,158.3 158.3,158.3 87.43,0 158.31,-70.88 158.31,-158.3" /><path
         id="path268"
         style="fill:#614e4c;fill-opacity:1;fill-rule:nonzero;stroke:none"
         d="m 2341.15,5563.01 c 0,-52.6 -42.66,-95.27 -95.27,-95.27 -52.61,0 -95.26,42.67 -95.26,95.27 0,52.6 42.65,95.27 95.26,95.27 52.61,0 95.27,-42.67 95.27,-95.27" /><path
         id="path270"
         style="fill:#ffffff;fill-opacity:1;fill-rule:nonzero;stroke:none"
         d="m 3532.89,5563.01 c 0,-87.42 -70.87,-158.3 -158.31,-158.3 -87.43,0 -158.3,70.88 -158.3,158.3 0,87.42 70.87,158.3 158.3,158.3 87.44,0 158.31,-70.88 158.31,-158.3" /><path
         id="path272"
         style="fill:#614e4c;fill-opacity:1;fill-rule:nonzero;stroke:none"
         d="m 3511.17,5563.01 c 0,-52.6 -42.65,-95.27 -95.27,-95.27 -52.61,0 -95.26,42.67 -95.26,95.27 0,52.6 42.65,95.27 95.26,95.27 52.62,0 95.27,-42.67 95.27,-95.27" /><path
         id="path274"
         style="fill:#ed7b61;fill-opacity:1;fill-rule:nonzero;stroke:none"
         d="m 3112.37,4668.2 c 36.74,-20.78 -88.96,-151.06 -322.79,-151.23 -233.83,0.15 -359.54,130.43 -322.81,151.23 31.48,23.89 163.75,-31.7 322.81,-28.52 159.04,-3.18 291.32,52.41 322.79,28.52" /><path
         id="path276"
         style="fill:#f9ac7b;fill-opacity:1;fill-rule:nonzero;stroke:none"
         d="m 2979.16,5105.66 -126.03,439.47 c -12.85,43.46 -36.6,70.21 -62.32,70.21 -25.71,0 -49.46,-26.75 -62.31,-70.21 l -126.03,-439.47 c -12.85,-43.47 -12.85,-83.58 0,-127.03 12.86,-43.45 50.05,-56.8 75.76,-56.8 h 112.58 112.59 c 25.71,0 62.9,13.35 75.76,56.8 12.86,43.45 12.86,83.56 0,127.03" /></g></g></svg>