<?xml version="1.0" encoding="utf-8"?>
<!-- Generator: Adobe Illustrator 23.0.1, SVG Export Plug-In . SVG Version: 6.00 Build 0)  -->
<svg version="1.1" id="Layer_1" xmlns="http://www.w3.org/2000/svg" xmlns:xlink="http://www.w3.org/1999/xlink" x="0px" y="0px"
	 viewBox="0 0 600 600" style="enable-background:new 0 0 600 600;" xml:space="preserve">
<style type="text/css">
	.st0{fill:#FFFFFF;}
</style>
<path class="st0" d="M519.04,277.18c17.54-12.33,29.16-32.83,29.16-55.95c0-37.81-30.58-68.39-68.39-68.39
	c-37.81,0-68.39,30.58-68.39,68.39c0,23.12,11.5,43.62,29.16,55.95c-15.05,5.21-28.8,13.27-40.42,23.71
	c-16-13.64-34.85-24.07-55.48-30.23c25.01-15.17,41.84-42.79,41.84-74.2c0-47.89-38.76-86.65-86.64-86.65
	c-47.89,0-86.65,38.88-86.65,86.65c0,31.41,16.71,59.03,41.84,74.2c-20.38,6.17-39,16.48-54.88,29.87
	c-11.61-10.19-25.13-18.13-39.95-23.23c17.54-12.33,29.16-32.83,29.16-55.95c0-37.81-30.58-68.39-68.39-68.39
	c-37.81,0-68.39,30.58-68.39,68.39c0,23.12,11.5,43.62,29.16,55.95C34.71,293.54,0.93,338.23,0.93,390.73v7.83
	c0,0.24,0.24,0.47,0.47,0.47h144.97c-0.83,6.52-1.3,13.28-1.3,20.03v8.06c0,34.85,28.21,63.06,63.06,63.06h183.73
	c34.85,0,63.06-28.21,63.06-63.06v-8.06c0-6.75-0.47-13.52-1.3-20.03h145.92c0.24,0,0.47-0.24,0.47-0.47v-7.83
	C599.76,338.11,566.1,293.42,519.04,277.18L519.04,277.18z M430.38,221.12c0-27.27,22.17-49.43,49.43-49.43
	c27.27,0,49.43,22.17,49.43,49.43c0,26.9-21.69,48.83-48.48,49.43h-1.9C451.95,270.07,430.38,248.14,430.38,221.12L430.38,221.12z
	 M231.95,196.46c0-37.34,30.34-67.68,67.68-67.68c37.34,0,67.68,30.34,67.68,67.68c0,36.04-28.33,65.55-63.78,67.56h-7.82
	C260.28,262.01,231.95,232.5,231.95,196.46L231.95,196.46z M71.22,221.12c0-27.27,22.16-49.43,49.43-49.43
	c27.26,0,49.43,22.17,49.43,49.43c0,26.9-21.69,48.83-48.48,49.43h-1.9C92.91,270.07,71.22,248.14,71.22,221.12L71.22,221.12z
	 M149.69,379.95H20.13c5.33-50.5,48-90.09,99.8-90.45h1.42c24.66,0.12,47.18,9.25,64.6,24.07
	C168.89,332.06,156.21,354.82,149.69,379.95L149.69,379.95z M435.71,427.13c0,24.3-19.8,44.09-44.1,44.09H207.89
	c-24.3,0-44.09-19.8-44.09-44.09v-8.06c0-73.61,58.79-133.83,131.93-135.96c1.3,0.12,2.73,0.12,4.03,0.12c1.3,0,2.73,0,4.03-0.12
	c73.14,2.13,131.93,62.35,131.93,135.96V427.13z M449.82,379.95c-6.52-25.02-18.97-47.41-35.92-65.91
	c17.54-15.18,40.31-24.3,65.19-24.54h1.42c51.8,0.36,94.47,39.95,99.8,90.45H449.82z M449.82,379.95"/>
</svg>
