<?xml version="1.0" encoding="utf-8"?>
<!-- Generator: Adobe Illustrator 23.0.1, SVG Export Plug-In . SVG Version: 6.00 Build 0)  -->
<svg version="1.1" id="Layer_1" xmlns="http://www.w3.org/2000/svg" xmlns:xlink="http://www.w3.org/1999/xlink" x="0px" y="0px"
	 viewBox="0 0 600 600" style="enable-background:new 0 0 600 600;" xml:space="preserve">
<style type="text/css">
	.st0{fill:#FFFFFF;}
</style>
<path class="st0" d="M322.11,160h-44.21v33.93h-39.06c-12.44,0-22.52,10.08-22.52,22.52v83.2c0,12.45,10.1,22.54,22.55,22.52
	l100.61-0.12v39.8H216.32v44.21h61.58V440h44.21v-33.93h39.06c12.44,0,22.52-10.08,22.52-22.52v-83.2
	c0-12.45-10.1-22.54-22.55-22.52l-100.61,0.12v-39.8h123.16v-44.21h-61.58V160z M322.11,160"/>
<g>
	<path class="st0" d="M568.14,102.76H31.86C14.27,102.76,0,117.02,0,134.62v330.76c0,17.6,14.27,31.86,31.86,31.86h536.27
		c17.6,0,31.86-14.27,31.86-31.86V134.62C600,117.02,585.73,102.76,568.14,102.76z M570.11,467.92H29.89V132.08h540.21V467.92z"/>
</g>
</svg>
