<?xml version="1.0" standalone="no"?>
<!DOCTYPE svg PUBLIC "-//W3C//DTD SVG 20010904//EN"
 "http://www.w3.org/TR/2001/REC-SVG-20010904/DTD/svg10.dtd">
<svg version="1.0" xmlns="http://www.w3.org/2000/svg"
 width="1024.000000pt" height="653.000000pt" viewBox="0 0 1024.000000 653.000000"
 preserveAspectRatio="xMidYMid meet">
<metadata>
Created by potrace 1.15, written by Peter Selinger 2001-2017
</metadata>
<g transform="translate(0.000000,653.000000) scale(0.100000,-0.100000)"
fill="#000000" stroke="none">
<path d="M8860 6499 c-30 -17 -56 -34 -58 -40 -2 -5 -10 -9 -18 -9 -8 0 -14
-4 -14 -9 0 -5 -12 -11 -27 -13 -16 -3 -37 -9 -48 -13 -19 -8 -19 -8 -2 12 9
11 17 22 17 25 0 6 -198 -58 -222 -72 -10 -5 -26 -10 -37 -10 -10 0 -30 -9
-44 -20 -14 -11 -38 -20 -54 -20 -39 -1 -559 -176 -556 -188 1 -6 -6 -8 -16
-5 -22 5 -1681 -544 -1681 -557 0 -5 -6 -7 -14 -4 -7 3 -67 -14 -132 -36 -65
-23 -128 -44 -139 -48 -11 -3 -25 -12 -31 -20 -6 -9 -16 -12 -23 -8 -14 9
-1141 -361 -1156 -379 -5 -6 -15 -10 -22 -8 -6 2 -330 -102 -720 -232 -497
-165 -712 -241 -720 -254 -8 -13 -20 -17 -41 -13 -37 5 -2974 -968 -3024
-1002 -18 -12 -43 -37 -55 -55 -45 -66 -38 -102 118 -568 l140 -422 30 6 c23
4 29 2 29 -11 0 -9 -7 -19 -16 -23 -8 -3 -13 -11 -10 -19 3 -7 1 -14 -3 -16
-4 -2 170 -538 388 -1193 373 -1119 398 -1190 419 -1189 16 0 19 -3 12 -10
-16 -16 -12 -24 27 -51 79 -53 24 -68 1446 405 1454 483 2986 993 5492 1825
941 313 1717 572 1725 576 8 4 82 28 163 54 81 25 145 50 142 55 -3 5 4 11 15
15 11 3 20 12 20 19 0 8 7 19 15 26 10 9 15 9 15 1 0 -21 20 -11 35 19 17 34
21 130 4 130 -6 0 -8 7 -5 16 7 17 -190 620 -205 630 -5 3 -9 18 -9 34 0 16
-5 32 -10 35 -6 4 -7 11 -4 17 4 6 1 9 -6 6 -7 -2 -24 6 -38 18 -24 23 -23 44
4 44 8 0 14 6 14 13 0 20 -21 36 -39 30 -12 -4 -12 -1 3 11 13 10 16 21 11 33
-5 10 -9 23 -10 29 -2 6 -105 319 -231 695 -125 376 -229 686 -229 689 -2 7
-72 220 -85 255 -6 17 -63 188 -127 380 -63 193 -124 362 -134 377 -54 75
-168 91 -269 37z m152 -116 c9 -10 68 -177 133 -370 80 -243 121 -353 131
-353 16 0 19 -17 4 -22 -12 -4 66 -244 79 -241 5 1 7 -5 5 -15 -3 -9 88 -296
201 -637 248 -747 234 -708 251 -701 11 4 11 1 3 -12 -8 -13 -2 -42 25 -122
30 -88 39 -105 56 -104 24 1 25 -5 4 -20 -16 -12 -17 -10 55 -221 6 -16 27
-79 47 -140 56 -171 66 -195 80 -195 17 0 18 -12 2 -29 -11 -10 -10 -15 4 -25
10 -7 15 -16 12 -19 -4 -3 -2 -19 3 -34 8 -22 6 -32 -7 -45 -9 -10 -173 -70
-366 -134 -192 -64 -354 -120 -360 -125 -6 -5 -13 -7 -15 -4 -3 2 -273 -85
-599 -194 -327 -109 -1558 -518 -2735 -909 -1177 -391 -2729 -907 -3450 -1147
-1160 -385 -1378 -454 -1352 -428 4 3 3 11 -2 17 -4 6 -30 76 -56 156 -26 80
-51 149 -56 155 -5 5 -9 16 -9 24 0 16 -707 2148 -718 2166 -4 5 -8 19 -9 31
-2 11 -18 63 -36 115 -28 78 -37 93 -53 91 -17 -3 -18 -2 -3 13 14 14 8 38
-68 267 -66 197 -82 257 -75 273 8 17 89 47 428 159 265 87 425 145 436 157
10 12 18 15 20 8 3 -8 192 51 528 163 289 96 937 311 1440 478 503 167 920
309 926 316 6 8 14 11 17 8 3 -3 20 -1 39 5 301 99 2123 703 2203 731 61 21
180 61 265 88 85 28 176 59 202 70 25 11 48 19 50 17 7 -7 831 273 849 289 11
9 24 16 29 16 6 0 10 4 10 9 0 13 35 20 53 10 20 -12 47 -1 47 18 0 13 -3 13
-15 3 -12 -10 -15 -10 -15 0 0 20 32 39 64 40 23 0 27 -3 23 -20 -3 -11 -3
-20 -1 -20 24 0 442 146 452 158 6 9 12 11 12 5 0 -6 172 47 383 117 210 71
389 129 398 129 9 1 23 -7 31 -16z"/>
<path d="M7845 5978 c-1175 -392 -1146 -382 -1122 -386 18 -4 24 -32 7 -32 -5
0 -10 5 -10 11 0 6 -9 9 -20 6 -10 -3 -20 -1 -22 3 -4 10 -1076 -347 -1094
-364 -7 -8 -22 -12 -33 -9 -10 3 -34 -2 -53 -10 -18 -8 -418 -141 -888 -297
-470 -155 -871 -289 -890 -298 -19 -9 -42 -16 -51 -17 -25 -3 -3370 -1116
-3401 -1131 -33 -17 -58 -62 -58 -104 0 -18 10 -59 23 -93 13 -34 41 -116 62
-182 20 -66 41 -124 45 -130 4 -5 11 -25 15 -44 15 -71 217 -666 229 -676 7
-5 11 -16 8 -23 -8 -24 572 -1752 586 -1747 6 2 12 0 12 -4 0 -5 -4 -11 -10
-13 -15 -5 43 -165 70 -193 13 -14 39 -28 58 -31 38 -7 46 -6 307 82 105 35
198 66 208 69 10 2 350 114 755 249 939 313 2788 927 4867 1618 897 297 1632
544 1635 548 3 4 12 7 20 7 19 0 835 271 872 290 43 21 80 113 46 113 -8 0 -9
3 -1 11 16 16 -167 561 -186 554 -11 -4 -11 -2 -2 8 8 11 7 26 -6 63 -9 27
-19 51 -22 54 -3 3 -6 10 -6 15 -1 15 -26 98 -33 110 -4 6 -8 17 -9 26 -1 9
-8 29 -14 45 -7 16 -13 36 -15 44 -10 47 -75 225 -83 228 -5 2 -8 9 -5 15 2 7
-46 163 -107 347 -62 184 -121 362 -132 395 -11 33 -102 308 -203 610 -163
489 -186 553 -214 578 -23 21 -40 27 -73 26 -26 -1 -417 -126 -1062 -341z
m-150 -944 c84 -18 221 -82 288 -135 26 -21 51 -39 55 -41 12 -5 166 -181 163
-186 -1 -1 14 -30 33 -65 19 -34 46 -87 59 -117 13 -30 30 -68 37 -85 7 -16
14 -37 16 -45 1 -8 14 -53 28 -100 108 -360 22 -717 -221 -920 -36 -30 -53
-52 -53 -67 0 -24 -25 -32 -32 -11 -3 9 -15 5 -39 -13 -19 -14 -87 -48 -151
-76 -65 -28 -114 -54 -110 -58 4 -4 -3 -5 -14 -1 -16 5 -27 0 -42 -18 -10 -14
-22 -22 -26 -19 -3 3 -6 1 -6 -5 0 -16 -27 -15 -32 0 -6 16 -235 -59 -248 -81
-5 -9 -10 -11 -10 -4 0 6 -9 9 -21 6 -16 -5 -18 -8 -7 -15 9 -6 6 -7 -9 -3
-14 4 -98 -19 -233 -64 -117 -39 -214 -71 -216 -71 -2 0 -11 18 -20 40 -9 22
-23 40 -31 40 -12 0 -13 3 -4 14 10 12 -18 105 -134 454 -88 264 -152 442
-160 446 -8 3 -12 12 -9 21 3 8 3 27 0 41 -5 19 -12 25 -26 21 -13 -3 -20 2
-24 17 -9 35 -7 46 11 46 13 0 14 3 6 11 -9 9 -18 8 -38 -5 -15 -10 -30 -15
-33 -11 -4 3 0 10 8 15 12 8 13 15 3 41 -13 33 -9 54 8 44 26 -17 11 46 -81
319 -55 165 -98 301 -96 304 10 9 858 288 956 314 183 48 302 54 455 22z
m-1724 -806 c106 -318 123 -355 159 -343 8 3 4 -3 -9 -13 -23 -19 -23 -19 -7
-75 15 -50 36 -85 36 -58 0 6 6 11 14 11 9 0 12 -8 8 -25 -2 -14 -8 -22 -13
-19 -10 6 -11 -11 -3 -43 l6 -21 44 18 c53 23 58 10 9 -20 -19 -12 -35 -26
-35 -32 0 -5 68 -212 150 -460 83 -248 149 -451 148 -452 -2 -1 -94 -31 -206
-68 -201 -66 -203 -66 -211 -45 -5 12 -84 249 -176 527 -92 278 -170 510 -174
515 -3 6 -7 17 -8 25 -1 8 -59 185 -128 392 -69 208 -125 381 -125 385 0 5 14
16 32 26 24 14 28 15 18 2 -7 -8 -9 -15 -4 -15 5 0 88 27 184 59 96 33 177 57
179 55 2 -2 53 -149 112 -326z m-1491 -23 c0 -15 -5 -25 -12 -24 -26 3 -38 -1
-38 -14 0 -7 -16 -19 -35 -26 -39 -14 -47 -41 -13 -41 28 0 13 -15 -24 -24
-16 -4 -28 -2 -30 5 -3 9 -10 9 -26 0 -16 -9 -22 -9 -22 0 0 7 -8 9 -20 5 -11
-3 -29 -9 -40 -12 -14 -5 -20 -2 -20 10 0 9 7 16 15 16 8 0 15 7 15 15 0 8 5
15 10 15 6 0 10 7 10 17 0 15 1 15 18 0 21 -20 33 -22 30 -6 -4 17 75 56 80
40 3 -8 9 -5 19 9 12 17 22 21 44 16 22 -4 27 -2 22 9 -3 8 0 15 6 15 6 0 11
-11 11 -25z m135 -401 c24 -25 236 -255 424 -459 112 -121 207 -221 212 -223
5 -2 23 6 40 18 21 15 34 19 41 12 7 -7 3 -12 -13 -17 -13 -4 -29 -14 -37 -21
-16 -16 -14 -19 157 -203 58 -62 111 -119 116 -125 11 -13 237 -258 245 -266
37 -37 39 -35 -172 -106 -112 -37 -204 -70 -206 -74 -6 -16 -42 4 -79 43 -21
23 -76 85 -123 137 -46 52 -102 114 -124 137 l-41 42 -420 -140 c-231 -78
-423 -145 -426 -151 -6 -9 -14 -110 -24 -313 -9 -165 -7 -160 -73 -183 -94
-34 -362 -122 -370 -122 -5 0 -3 55 4 123 6 67 19 205 28 307 16 170 26 283
71 750 8 91 18 199 20 240 3 41 9 109 14 150 5 41 12 112 15 158 6 82 6 83
-15 72 -32 -18 -33 -5 -1 19 27 19 30 27 36 103 4 46 10 109 13 141 5 52 4 57
-14 57 -11 0 -32 -11 -47 -25 -20 -19 -32 -23 -44 -16 -15 8 -13 11 11 20 15
6 27 15 27 21 0 5 7 10 15 10 8 0 15 5 15 10 0 6 6 10 13 10 6 0 25 7 40 15
27 14 57 11 57 -5 0 -12 292 87 301 101 4 6 11 9 17 5 6 -3 20 -2 33 2 20 8
36 -6 138 -117 63 -69 120 -131 126 -137z m-1375 -248 c0 -2 3 -11 6 -19 7
-19 -24 -31 -42 -16 -11 9 -14 7 -14 -7 0 -13 -16 -26 -50 -42 -27 -13 -50
-25 -50 -27 0 -2 24 -20 53 -39 104 -69 179 -174 228 -321 20 -59 24 -90 24
-195 0 -110 -3 -131 -24 -180 -79 -178 -192 -286 -391 -375 -91 -40 -134 -56
-384 -141 -121 -40 -221 -75 -223 -77 -2 -2 49 -160 113 -352 63 -191 112
-351 107 -355 -4 -5 -93 -36 -198 -70 -104 -35 -193 -64 -196 -66 -4 -2 -145
411 -314 919 -169 507 -309 927 -311 932 -2 6 177 70 399 143 635 209 722 232
855 232 70 -1 175 -18 200 -34 11 -7 49 10 137 60 57 32 75 39 75 30z"/>
<path d="M7275 4685 c-132 -33 -475 -149 -475 -161 0 -22 80 -257 100 -295 11
-20 17 -39 14 -42 -6 -5 30 -119 44 -142 4 -5 7 -12 7 -15 4 -25 19 -81 30
-105 7 -16 56 -163 109 -326 54 -162 101 -301 106 -308 6 -10 59 4 236 64 292
98 362 131 439 210 84 85 100 132 99 295 -1 156 -36 298 -124 502 -44 102 -77
153 -138 216 -38 39 -46 43 -75 37 -26 -6 -30 -5 -19 6 19 20 15 25 -40 50
-67 29 -222 36 -313 14z"/>
<path d="M4286 3559 c-2 -8 -11 -131 -20 -274 -10 -143 -21 -318 -27 -389 -5
-71 -8 -130 -6 -132 3 -3 578 185 586 192 2 2 -12 23 -31 46 -31 37 -465 537
-489 562 -5 6 -10 4 -13 -5z"/>
<path d="M2565 3120 c-22 -4 -80 -22 -130 -38 -49 -17 -144 -47 -210 -68 -66
-20 -124 -40 -129 -45 -6 -5 151 -507 170 -541 6 -10 378 119 479 167 110 52
166 106 195 188 24 69 25 99 3 166 -20 62 -71 125 -125 152 -46 23 -186 34
-253 19z"/>
</g>
</svg>
